Tidyverse Core 1: filtering, selecting and arranging data
…
Next, let’s use the table() command to see how many records for each year we have:

table(gapminder$year)

## 
## 1952 1957 1962 1967 1972 1977 1982 1987 1992 1997 2002 2007 
##  142  142  142  142  142  142  142  142  142  142  142  142

Let’s filter out the records from 1952 using the filter() command:

filter(gapminder, year == 1952)

## # A tibble: 142 x 6
##    country     continent  year lifeExp      pop gdpPercap
##    <fct>       <fct>     <int>   <dbl>    <int>     <dbl>
##  1 Afghanistan Asia       1952    28.8  8425333      779.
##  2 Albania     Europe     1952    55.2  1282697     1601.
##  3 Algeria     Africa     1952    43.1  9279525     2449.
##  4 Angola      Africa     1952    30.0  4232095     3521.
##  5 Argentina   Americas   1952    62.5 17876956     5911.
##  6 Australia   Oceania    1952    69.1  8691212    10040.
##  7 Austria     Europe     1952    66.8  6927772     6137.
##  8 Bahrain     Asia       1952    50.9   120447     9867.
##  9 Bangladesh  Asia       1952    37.5 46886859      684.
## 10 Belgium     Europe     1952    68    8730405     8343.
## # … with 132 more rows

If we are interested in retrieving records from the 1950s:

filter(gapminder, year < 1960)

## # A tibble: 284 x 6
##    country     continent  year lifeExp      pop gdpPercap
##    <fct>       <fct>     <int>   <dbl>    <int>     <dbl>
##  1 Afghanistan Asia       1952    28.8  8425333      779.
##  2 Afghanistan Asia       1957    30.3  9240934      821.
##  3 Albania     Europe     1952    55.2  1282697     1601.
##  4 Albania     Europe     1957    59.3  1476505     1942.
##  5 Algeria     Africa     1952    43.1  9279525     2449.
##  6 Algeria     Africa     1957    45.7 10270856     3014.
##  7 Angola      Africa     1952    30.0  4232095     3521.
##  8 Angola      Africa     1957    32.0  4561361     3828.
##  9 Argentina   Americas   1952    62.5 17876956     5911.
## 10 Argentina   Americas   1957    64.4 19610538     6857.
## # … with 274 more rows
…
gapminder %>%
  filter(continent == "Americas") %>%
  filter(year >= 1970 & year < 1980) %>%
  filter(lifeExp > 65 & pop > 10^7)

Another advantage of using pipes is that RStudio will help us with tab completion and suggest the names of columns in our data when we use them. This is why we will continue to use the pipe for the rest of this training course.

Arranging our records using the arrange command

We can arrange our data by using the arrange() command. For example, to arrange the gapminder dataset by population:

gapminder %>%
  arrange(pop)

## # A tibble: 1,704 x 6
##    country               continent  year lifeExp   pop gdpPercap
##    <fct>                 <fct>     <int>   <dbl> <int>     <dbl>
##  1 Sao Tome and Principe Africa     1952    46.5 60011      880.
##  2 Sao Tome and Principe Africa     1957    48.9 61325      861.
##  3 Djibouti              Africa     1952    34.8 63149     2670.
##  4 Sao Tome and Principe Africa     1962    51.9 65345     1072.
##  5 Sao Tome and Principe Africa     1967    54.4 70787     1385.
##  6 Djibouti              Africa     1957    37.3 71851     2865.
##  7 Sao Tome and Principe Africa     1972    56.5 76595     1533.
##  8 Sao Tome and Principe Africa     1977    58.6 86796     1738.
##  9 Djibouti              Africa     1962    39.7 89898     3021.
## 10 Sao Tome and Principe Africa     1982    60.4 98593     1890.
## # … with 1,694 more rows

By default, arrange() arranges things from lowest to highest, but we can use desc() to arrange in descending order:

gapminder %>%
  arrange(desc(pop))

## # A tibble: 1,704 x 6
##    country continent  year lifeExp        pop gdpPercap
##    <fct>   <fct>     <int>   <dbl>      <int>     <dbl>
##  1 China   Asia       2007    73.0 1318683096     4959.
##  2 China   Asia       2002    72.0 1280400000     3119.
##  3 China   Asia       1997    70.4 1230075000     2289.
##  4 China   Asia       1992    68.7 1164970000     1656.
##  5 India   Asia       2007    64.7 1110396331     2452.
##  6 China   Asia       1987    67.3 1084035000     1379.
##  7 India   Asia       2002    62.9 1034172547     1747.
##  8 China   Asia       1982    65.5 1000281000      962.
##  9 India   Asia       1997    61.8  959000000     1459.
## 10 China   Asia       1977    64.0  943455000      741.
## # … with 1,694 more rows
…
Selecting the columns we want using the select() command

So far, we’ve returned all of the columns from the data frames we’ve been working with. However, we may be interested in working with only a selection of them, so we can use the select() command to pick and choose which columns we are interested in.

For example, to select() only the country, year and lifeExp columns from our dataset we can do the following:

gapminder %>%
  select(country, year, lifeExp)

## # A tibble: 1,704 x 3
##    country      year lifeExp
##    <fct>       <int>   <dbl>
##  1 Afghanistan  1952    28.8
##  2 Afghanistan  1957    30.3
##  3 Afghanistan  1962    32.0
##  4 Afghanistan  1967    34.0
##  5 Afghanistan  1972    36.1
##  6 Afghanistan  1977    38.4
##  7 Afghanistan  1982    39.9
##  8 Afghanistan  1987    40.8
##  9 Afghanistan  1992    41.7
## 10 Afghanistan  1997    41.8
## # … with 1,694 more rows
…
